Summarizing Data – STAT 230 Data Science and Statistics
…
Extracting month

temperatures |>
  mutate(month = month(day))

# A tibble: 198,900 × 7
   country_name country_code  year day        daily_average monthly_average
   <chr>        <chr>        <dbl> <date>             <dbl>           <dbl>
 1 Afghanistan  AFG           1940 1940-01-15        -2.03             11.3
 2 Afghanistan  AFG           1940 1940-02-15        -0.734            11.3
 3 Afghanistan  AFG           1940 1940-03-15         2.00             11.3
 4 Afghanistan  AFG           1940 1940-04-15        10.2              11.3
 5 Afghanistan  AFG           1940 1940-05-15        17.9              11.3
 6 Afghanistan  AFG           1940 1940-06-15        23.2              11.3
 7 Afghanistan  AFG           1940 1940-07-15        24.4              11.3
 8 Afghanistan  AFG           1940 1940-08-15        22.1              11.3
 9 Afghanistan  AFG           1940 1940-09-15        17.7              11.3
10 Afghanistan  AFG           1940 1940-10-15        13.7              11.3
# ℹ 198,890 more rows
# ℹ 1 more variable: month <dbl>
…
